{
  "name": "komonzu",
  "description": "Installs/Configures komonzu",
  "long_description": "= DESCRIPTION:\n\n= REQUIREMENTS:\n\n= ATTRIBUTES:\n\n= USAGE:\n\n",
  "maintainer": "Michael Linderman",
  "maintainer_email": "michael.linderman@mssm.edu",
  "license": "",
  "platforms": {
  },
  "dependencies": {
  },
  "recommendations": {
  },
  "suggestions": {
  },
  "conflicting": {
  },
  "providing": {
  },
  "replacing": {
  },
  "attributes": {
  },
  "groupings": {
  },
  "recipes": {
  },
  "version": "0.0.1"
}